\relax 
\providecommand\hyper@newdestlabel[2]{}
\providecommand*\new@tpo@label[2]{}
\providecommand\HyperFirstAtBeginDocument{\AtBeginDocument}
\HyperFirstAtBeginDocument{\ifx\hyper@anchor\@undefined
\global\let\oldcontentsline\contentsline
\gdef\contentsline#1#2#3#4{\oldcontentsline{#1}{#2}{#3}}
\global\let\oldnewlabel\newlabel
\gdef\newlabel#1#2{\newlabelxx{#1}#2}
\gdef\newlabelxx#1#2#3#4#5#6{\oldnewlabel{#1}{{#2}{#3}}}
\AtEndDocument{\ifx\hyper@anchor\@undefined
\let\contentsline\oldcontentsline
\let\newlabel\oldnewlabel
\fi}
\fi}
\global\let\hyper@last\relax 
\gdef\HyperFirstAtBeginDocument#1{#1}
\providecommand\HyField@AuxAddToFields[1]{}
\providecommand\HyField@AuxAddToCoFields[2]{}
\providecommand\BKM@entry[2]{}
\oddpage@label{7}{1}
\oddpage@label{8}{1}
\oddpage@label{9}{1}
\pgfsyspdfmark {pgfid9}{53305491}{-160862738}
\oddpage@label{10}{1}
\pgfsyspdfmark {pgfid10}{100788013}{-185979656}
\pgfsyspdfmark {pgfid8}{19579140}{27690498}
\pgfsyspdfmark {pgfid7}{4736286}{50644710}
\providecommand \oddpage@label [2]{}
\oddpage@label{1}{1}
\pgfsyspdfmark {pgfid1}{6591363}{49122001}
\oddpage@label{2}{1}
\pgfsyspdfmark {pgfid2}{6591363}{48230711}
\oddpage@label{3}{1}
\oddpage@label{4}{1}
\oddpage@label{5}{1}
\pgfsyspdfmark {pgfid5}{49167657}{283902918}
\pgfsyspdfmark {pgfid4}{0}{55380996}
\pgfsyspdfmark {pgfid3}{6591363}{47339421}
\oddpage@label{6}{1}
\pgfsyspdfmark {pgfid6}{6591363}{46448131}
\BKM@entry{id=1,dest={73656374696F6E2E31},srcline={125}}{486973746F7279}
\BKM@entry{id=2,dest={73656374696F6E2E32},srcline={131}}{496E74726F64756374696F6E}
\BKM@entry{id=3,dest={73756273656374696F6E2E322E31},srcline={133}}{57686174207468697320646F63756D656E74206973}
\oddpage@label{11}{2}
\oddpage@label{12}{2}
\oddpage@label{13}{2}
\pgfsyspdfmark {pgfid13}{53305491}{-160862738}
\oddpage@label{14}{2}
\pgfsyspdfmark {pgfid14}{100788013}{-185979656}
\pgfsyspdfmark {pgfid12}{19579140}{27690498}
\pgfsyspdfmark {pgfid11}{4736286}{50644710}
\@writefile{toc}{\contentsline {section}{\numberline {1}History}{2}{section.1}\protected@file@percent }
\@writefile{toc}{\contentsline {section}{\numberline {2}Introduction}{2}{section.2}\protected@file@percent }
\BKM@entry{id=4,dest={73756273656374696F6E2E322E32},srcline={137}}{57686F2063616E206368616E6765207468697320646F63756D656E74}
\BKM@entry{id=5,dest={73756273656374696F6E2E322E33},srcline={143}}{57686174207468697320646F63756D656E7420636F6E7461696E73}
\BKM@entry{id=6,dest={73756273656374696F6E2E322E34},srcline={147}}{5068696C6F736F706879}
\oddpage@label{18}{3}
\oddpage@label{19}{3}
\oddpage@label{20}{3}
\pgfsyspdfmark {pgfid20}{53305491}{-160862738}
\oddpage@label{21}{3}
\pgfsyspdfmark {pgfid21}{100788013}{-185979656}
\pgfsyspdfmark {pgfid19}{19579140}{27690498}
\pgfsyspdfmark {pgfid18}{4736286}{50644710}
\@writefile{toc}{\contentsline {subsection}{\numberline {2.1}What this document is}{3}{subsection.2.1}\protected@file@percent }
\@writefile{toc}{\contentsline {subsection}{\numberline {2.2}Who can change this document}{3}{subsection.2.2}\protected@file@percent }
\@writefile{toc}{\contentsline {subsection}{\numberline {2.3}What this document contains}{3}{subsection.2.3}\protected@file@percent }
\@writefile{toc}{\contentsline {subsection}{\numberline {2.4}Philosophy}{3}{subsection.2.4}\protected@file@percent }
\oddpage@label{15}{3}
\oddpage@label{16}{3}
\oddpage@label{17}{3}
\pgfsyspdfmark {pgfid17}{-23949284}{-44156131}
\pgfsyspdfmark {pgfid16}{932339}{55380995}
\pgfsyspdfmark {pgfid15}{33284538}{7677017}
\BKM@entry{id=7,dest={73656374696F6E2E33},srcline={164}}{43757272656E7420736572766963652070726F766973696F6E}
\BKM@entry{id=8,dest={73756273656374696F6E2E332E31},srcline={168}}{546865204A4352}
\oddpage@label{25}{4}
\oddpage@label{26}{4}
\oddpage@label{27}{4}
\pgfsyspdfmark {pgfid27}{53305491}{-160862738}
\oddpage@label{28}{4}
\pgfsyspdfmark {pgfid28}{100788013}{-185979656}
\pgfsyspdfmark {pgfid26}{19579140}{27690498}
\pgfsyspdfmark {pgfid25}{4736286}{50644710}
\@writefile{toc}{\contentsline {section}{\numberline {3}Current service provision}{4}{section.3}\protected@file@percent }
\@writefile{toc}{\contentsline {subsection}{\numberline {3.1}The JCR}{4}{subsection.3.1}\protected@file@percent }
\oddpage@label{22}{4}
\oddpage@label{23}{4}
\oddpage@label{24}{4}
\pgfsyspdfmark {pgfid24}{-23949284}{-44156131}
\pgfsyspdfmark {pgfid23}{932339}{55380995}
\pgfsyspdfmark {pgfid22}{33284538}{7677017}
\BKM@entry{id=9,dest={73756273656374696F6E2E332E32},srcline={174}}{54686520436F6C6C656765}
\BKM@entry{id=10,dest={73756273656374696F6E2E332E33},srcline={184}}{54686520556E6976657273697479}
\BKM@entry{id=11,dest={73656374696F6E2E34},srcline={192}}{46757475726520446576656C6F706D656E74}
\BKM@entry{id=12,dest={73756273656374696F6E2E342E31},srcline={196}}{53686F7274207465726D}
\BKM@entry{id=13,dest={73756273656374696F6E2E342E32},srcline={202}}{4C6F6E67207465726D}
\oddpage@label{32}{5}
\oddpage@label{33}{5}
\oddpage@label{34}{5}
\pgfsyspdfmark {pgfid34}{53305491}{-160862738}
\oddpage@label{35}{5}
\pgfsyspdfmark {pgfid35}{100788013}{-185979656}
\pgfsyspdfmark {pgfid33}{19579140}{27690498}
\pgfsyspdfmark {pgfid32}{4736286}{50644710}
\@writefile{toc}{\contentsline {subsection}{\numberline {3.2}The College}{5}{subsection.3.2}\protected@file@percent }
\@writefile{toc}{\contentsline {subsection}{\numberline {3.3}The University}{5}{subsection.3.3}\protected@file@percent }
\@writefile{toc}{\contentsline {section}{\numberline {4}Future Development}{5}{section.4}\protected@file@percent }
\@writefile{toc}{\contentsline {subsection}{\numberline {4.1}Short term}{5}{subsection.4.1}\protected@file@percent }
\oddpage@label{29}{5}
\oddpage@label{30}{5}
\oddpage@label{31}{5}
\pgfsyspdfmark {pgfid31}{-23949284}{-44156131}
\pgfsyspdfmark {pgfid30}{932339}{55380995}
\pgfsyspdfmark {pgfid29}{33284538}{7677017}
\BKM@entry{id=14,dest={73756273656374696F6E2E342E33},srcline={212}}{41737069726174696F6E73}
\BKM@entry{id=15,dest={73656374696F6E2E35},srcline={216}}{4D617474657273206F6620737570706F727420616E6420646973636F75726167656D656E74}
\BKM@entry{id=16,dest={73756273656374696F6E2E352E31},srcline={220}}{496E69746961746976657320666F7220737570706F7274}
\BKM@entry{id=17,dest={73756273656374696F6E2E352E32},srcline={230}}{446973636F75726167656420707261637469636573}
\@writefile{toc}{\contentsline {subsection}{\numberline {4.2}Long term}{6}{subsection.4.2}\protected@file@percent }
\@writefile{toc}{\contentsline {subsection}{\numberline {4.3}Aspirations}{6}{subsection.4.3}\protected@file@percent }
\@writefile{toc}{\contentsline {section}{\numberline {5}Matters of support and discouragement}{6}{section.5}\protected@file@percent }
\@writefile{toc}{\contentsline {subsection}{\numberline {5.1}Initiatives for support}{6}{subsection.5.1}\protected@file@percent }
\@writefile{toc}{\contentsline {subsection}{\numberline {5.2}Discouraged practices}{6}{subsection.5.2}\protected@file@percent }
\oddpage@label{36}{6}
\oddpage@label{37}{6}
\pgfsyspdfmark {pgfid37}{-2252798}{11904577}
\pgfsyspdfmark {pgfid36}{6591363}{16472026}
\oddpage@label{38}{6}
\oddpage@label{39}{6}
\oddpage@label{40}{6}
\pgfsyspdfmark {pgfid40}{-23949284}{-44156131}
\pgfsyspdfmark {pgfid39}{932339}{55380995}
\pgfsyspdfmark {pgfid38}{33284538}{7677017}
\global\@namedef{scr@dte@section@lastmaxnumwidth}{10.84047pt}
\global\@namedef{scr@dte@subsection@lastmaxnumwidth}{18.37163pt}
\@writefile{toc}{\providecommand\tocbasic@end@toc@file{}\tocbasic@end@toc@file}
\gdef \@abspage@last{6}
